[
  { "name": "Bard", "dex": 12, "cha": 14 },
  { "name": "Helare", "int": 12, "wis": 12 },
  { "name": "Krigare", "str": 14, "con": 12 },
  { "name": "Lärd man", "int": 16 },
  { "name": "Lönnmördare", "dex": 14, "wis": 12 },
  { "name": "Magiker", "int": 12, "wis": 14 },
  { "name": "Munk", "int": 12, "wis": 12 },
  { "name": "Sjöfarare", "con": 12, "smi": 12 },
  { "name": "Riddare", "str": 14, "con": 12, "wis": 12 },
  { "name": "Tjuv", "dex": 16 },
  { "name": "Utbygdsjägare", "con": 12, "dex": 12, "wis": 12 }
]
