[
  {
    "name": "Alv",
    "str": -1,
    "dex": 3,
    "int": 3,
    "cha": 2,
    "siz": { "normal": 11, "max": 14, "min": 8 },
    "cost": 25
  },
  {
    "name": "Anka",
    "str": -4,
    "con": 2,
    "dex": 2,
    "cha": -3,
    "siz": { "normal": 5, "max": 6, "min": 3 },
    "cost": 0
  },
  {
    "name": "Dvärg",
    "str": 3,
    "con": 2,
    "wis": 2,
    "siz": { "normal": 7, "max": 9, "min": 4 },
    "cost": 25
  },
  {
    "name": "Halvalv",
    "dex": 2,
    "cha": 1,
    "siz": { "normal": 12, "max": 16, "min": 7 },
    "cost": 15
  },
  {
    "name": "Halvlängdsman",
    "str": -4,
    "con": 3,
    "dex": 3,
    "wis": 2,
    "siz": { "normal": 5, "max": 6, "min": 3 },
    "cost": 15
  },
  {
    "name": "Halvorch",
    "str": 2,
    "con": 2,
    "dex": -1,
    "cha": -3,
    "siz": { "normal": 13, "max": 18, "min": 8 },
    "cost": 10
  },
  {
    "name": "Människa",
    "siz": { "normal": 13, "max": 18, "min": 8 },
    "cost": 10
  }
]
